{
  "next": "https://api.uploadcare.com/files/?limit=3&from=2018-11-27T01%3A00%3A43.001705%2B00%3A00&offset=0",
  "previous": "https://api.uploadcare.com/files/?limit=3&to=2018-11-27T01%3A00%3A36.436838%2B00%3A00&offset=0",
  "total": 2484,
  "per_page": 2,
  "results": [
    {
      "datetime_removed": null,
      "datetime_stored": "2018-11-26T12:49:10.477888Z",
      "datetime_uploaded": "2018-11-26T12:49:09.945335Z",
      "image_info": {
        "color_mode": "RGB",
        "orientation": null,
        "format": "JPEG",
        "sequence": false,
        "height": 500,
        "width": 500,
        "geo_location": null,
        "datetime_original": null,
        "dpi": [
          144,
          144
        ]
      },
      "is_image": true,
      "is_ready": true,
      "mime_type": "application/octet-stream",
      "original_file_url": "https://ucarecdn.com/3c269810-c17b-4e2c-92b6-25622464d866/papaya.jpg",
      "original_filename": "papaya.jpg",
      "size": 642,
      "url": "https://api.uploadcare.com/files/3c269810-c17b-4e2c-92b6-25622464d866/",
      "uuid": "3c269810-c17b-4e2c-92b6-25622464d866"
    },
    {
      "datetime_removed": null,
      "datetime_stored": "2018-11-26T12:49:10.477888Z",
      "datetime_uploaded": "2018-11-26T12:49:09.945335Z",
      "image_info": {
        "color_mode": "RGB",
        "orientation": null,
        "format": "JPEG",
        "sequence": false,
        "height": 500,
        "width": 500,
        "geo_location": null,
        "datetime_original": null,
        "dpi": [
          144,
          144
        ]
      },
      "is_image": true,
      "is_ready": true,
      "mime_type": "application/octet-stream",
      "original_file_url": "https://ucarecdn.com/3c269810-c17b-4e2c-92b6-25622464d866/papaya.jpg",
      "original_filename": "papaya.jpg",
      "size": 642,
      "url": "https://api.uploadcare.com/files/3c269810-c17b-4e2c-92b6-25622464d866/",
      "uuid": "3c269810-c17b-4e2c-92b6-25622464d866"
    }
  ]
}